…
We can see that some teams are active while some are not. Lets obtain
quantitative summaries of number of games played for each team.

``` r
stats<-rangers2 %>% group_by(active, data.teamName) %>% summarise(averageGames=mean(data.gamesPlayed), medGame= median(data.gamesPlayed), maxGame = max(data.gamesPlayed)) %>% arrange(desc(maxGame))
```

    ## `summarise()` regrouping output by 'active' (override with `.groups` argument)

``` r
stats
```

    ## # A tibble: 57 x 5
    ## # Groups:   active [2]
    ##    active data.teamName       averageGames medGame maxGame
    ##    <lgl>  <chr>                      <dbl>   <dbl>   <int>
    ##  1 TRUE   Montréal Canadiens         3745    3745     6731
    ##  2 TRUE   Boston Bruins              3617    3617     6570
    ##  3 TRUE   Chicago Blackhawks         3526    3526     6504
    ##  4 TRUE   New York Rangers           3511    3511     6504
    ##  5 TRUE   Toronto Maple Leafs        3499    3499     6460
    ##  6 TRUE   Detroit Red Wings          3428.   3428.    6237
    ##  7 TRUE   St. Louis Blues            2258.   2258.    4117
    ##  8 TRUE   Los Angeles Kings          2186.   2186.    4116
    ##  9 TRUE   Philadelphia Flyers        2282    2282     4115
    ## 10 TRUE   Pittsburgh Penguins        2250    2250     4115
    ## # … with 47 more rows
…
